%YAML 1.1
%TAG !u! tag:unity3d.com,2011:
--- !u!114 &11400000
MonoBehaviour:
  m_ObjectHideFlags: 0
  m_CorrespondingSourceObject: {fileID: 0}
  m_PrefabInstance: {fileID: 0}
  m_PrefabAsset: {fileID: 0}
  m_GameObject: {fileID: 0}
  m_Enabled: 1
  m_EditorHideFlags: 0
  m_Script: {fileID: 11500000, guid: 2bc14f62ad6e2eb4a9e6afc3456ab6e2, type: 3}
  m_Name: GoblinSelect
  m_EditorClassIdentifier: 
  dialogueInfos:
  - id: DGC1
    speaker: "\u54E5\u5E03\u6797"
    content: "\u5E79\uFF01"
