%YAML 1.1
%TAG !u! tag:unity3d.com,2011:
--- !u!114 &11400000
MonoBehaviour:
  m_ObjectHideFlags: 0
  m_CorrespondingSourceObject: {fileID: 0}
  m_PrefabInstance: {fileID: 0}
  m_PrefabAsset: {fileID: 0}
  m_GameObject: {fileID: 0}
  m_Enabled: 1
  m_EditorHideFlags: 0
  m_Script: {fileID: 11500000, guid: 2bc14f62ad6e2eb4a9e6afc3456ab6e2, type: 3}
  m_Name: TraderSecondTime
  m_EditorClassIdentifier: 
  dialogueInfos:
  - id: DTB1
    speaker: "\u795E\u79D8\u5546\u4EBA"
    content: "\u563B\u563B\uFF0C\u6211\u77E5\u9053\u4F60\u5728\u5C0B\u6C42\u4EC0\u9EBC\uFF0C\u5192\u96AA\u8005\u3002"
  - id: DTB2
    speaker: "\u795E\u79D8\u5546\u4EBA"
    content: "\u563B\u563B\uFF0E\uFF0E\uFF0E\u5662\uFF01\u539F\u4F86\u662F\u4F60\u3002\u4E0D\u8981\u90A3\u9EBC\u8457\u6025\uFF0C\u4F60\u7684\u90A3\u7B46\u751F\u610F\u9084\u6C92\u8AC7\u6210\u5462\u3002"
  - id: DTB3
    speaker: "\u795E\u79D8\u5546\u4EBA"
    content: "\u563B\u563B\uFF0C\u4F46\u6211\u60F3\uFF0C\u5982\u679C\uFF0E\uFF0E\u53EF\u4EE5\u518D\u591A\u6295\u8CC7\u4E00\u9EDE\uFF0C\u5831\u916C\u80AF\u5B9A\u96E3\u4EE5\u60F3\u50CF\u3002"
  - id: DTB4
    speaker: "\u795E\u79D8\u5546\u4EBA"
    content: "\u563B\u563B\uFF0C\u5982\u4F55\uFF1F\u518D\u628A\u529B\u91CF\u501F\u7D66\u6211\u5427\uFF0C\u4F60\u7684\u9858\u671B\u5C31\u5728\u773C\u524D\u3002 "
