%YAML 1.1
%TAG !u! tag:unity3d.com,2011:
--- !u!114 &11400000
MonoBehaviour:
  m_ObjectHideFlags: 0
  m_CorrespondingSourceObject: {fileID: 0}
  m_PrefabInstance: {fileID: 0}
  m_PrefabAsset: {fileID: 0}
  m_GameObject: {fileID: 0}
  m_Enabled: 1
  m_EditorHideFlags: 0
  m_Script: {fileID: 11500000, guid: 2bc14f62ad6e2eb4a9e6afc3456ab6e2, type: 3}
  m_Name: WitchSecondTime
  m_EditorClassIdentifier: 
  dialogueInfos:
  - id: DWC1
    speaker: "\u514B\u6D1B\u8482"
    content: "\u5C0D\u529B\u91CF\u7684\u6E34\u6C42\u7E3D\u662F\u7121\u6CD5\u6EFF\u8DB3\uFF0C\u5C0D\u5427\uFF1F"
  - id: DWC2
    speaker: "\u514B\u6D1B\u8482"
    content: "\u6DF1\u7D05\u662F\u860A\u85CF\u7684\u66B4\u8650\u3002"
  - id: DWC3
    speaker: "\u514B\u6D1B\u8482"
    content: "\u9D5D\u9EC3\u662F\u7121\u76E1\u7684\u63A2\u5C0B\u3002"
  - id: DWC4
    speaker: "\u514B\u6D1B\u8482"
    content: "\u6E5B\u85CD\u5247\u662F\u7D42\u6975\u7684\u57F7\u5FF5\u3002"
  - id: DWC5
    speaker: "\u514B\u6D1B\u8482"
    content: "\u4F86\u5427\uFF0C\u505A\u51FA\u4F60\u7684\u9078\u64C7\u3002"
