%YAML 1.1
%TAG !u! tag:unity3d.com,2011:
--- !u!1 &9196126080916462235
GameObject:
  m_ObjectHideFlags: 0
  m_CorrespondingSourceObject: {fileID: 0}
  m_PrefabInstance: {fileID: 0}
  m_PrefabAsset: {fileID: 0}
  serializedVersion: 6
  m_Component:
  - component: {fileID: 6785488561273183210}
  - component: {fileID: 4372080439914988850}
  m_Layer: 0
  m_Name: VfxHandler
  m_TagString: Untagged
  m_Icon: {fileID: 0}
  m_NavMeshLayer: 0
  m_StaticEditorFlags: 0
  m_IsActive: 1
--- !u!4 &6785488561273183210
Transform:
  m_ObjectHideFlags: 0
  m_CorrespondingSourceObject: {fileID: 0}
  m_PrefabInstance: {fileID: 0}
  m_PrefabAsset: {fileID: 0}
  m_GameObject: {fileID: 9196126080916462235}
  m_LocalRotation: {x: 0, y: 0, z: 0, w: 1}
  m_LocalPosition: {x: -2.596995, y: -4.455789, z: -1.3569207}
  m_LocalScale: {x: 1, y: 1, z: 1}
  m_Children: []
  m_Father: {fileID: 0}
  m_RootOrder: 0
  m_LocalEulerAnglesHint: {x: 0, y: 0, z: 0}
--- !u!114 &4372080439914988850
MonoBehaviour:
  m_ObjectHideFlags: 0
  m_CorrespondingSourceObject: {fileID: 0}
  m_PrefabInstance: {fileID: 0}
  m_PrefabAsset: {fileID: 0}
  m_GameObject: {fileID: 9196126080916462235}
  m_Enabled: 1
  m_EditorHideFlags: 0
  m_Script: {fileID: 11500000, guid: 229985d7111016f4ab7892a96aee79af, type: 3}
  m_Name: 
  m_EditorClassIdentifier: 
  vfxList:
  - name: 0
    prefab: {fileID: 100014, guid: 5332791ebce075d4a9e56f4581e7fb47, type: 3}
  - name: 1
    prefab: {fileID: 100002, guid: 6ecf76dc4f268d340b2666896a954bcc, type: 3}
  - name: 2
    prefab: {fileID: 100006, guid: 60bc526f4be1e044ab9e46340b82ffb3, type: 3}
  - name: 3
    prefab: {fileID: 100004, guid: f95ff734540a0d749be6571b6cb5b37f, type: 3}
  - name: 4
    prefab: {fileID: 1545806602296978, guid: 9e4577abe56a95f4a91d29a0473cd30c, type: 3}
  - name: 5
    prefab: {fileID: 8438364017149897477, guid: 2196918e605ad164489bcdfc10c0d30c, type: 3}
  - name: 6
    prefab: {fileID: 100004, guid: 9c2c1899dbceb2c4baf71c82e0d0e7ac, type: 3}
  - name: 7
    prefab: {fileID: 100004, guid: 65421461dc077ef42a8b1c82d7646838, type: 3}
  - name: 8
    prefab: {fileID: 1687118924408352, guid: e3238c133c935f14e8e93b96bf28c117, type: 3}
  - name: 9
    prefab: {fileID: 100000, guid: f3879f9bde133fb41b3379fca5fa17f6, type: 3}
  - name: 10
    prefab: {fileID: 100000, guid: e8c1e70fb1024804ca79b0704827cb8c, type: 3}
  - name: 11
    prefab: {fileID: 1040608886635896, guid: d0d806a09e9dfe644b83f67e66c1a173, type: 3}
