%YAML 1.1
%TAG !u! tag:unity3d.com,2011:
--- !u!114 &11400000
MonoBehaviour:
  m_ObjectHideFlags: 0
  m_CorrespondingSourceObject: {fileID: 0}
  m_PrefabInstance: {fileID: 0}
  m_PrefabAsset: {fileID: 0}
  m_GameObject: {fileID: 0}
  m_Enabled: 1
  m_EditorHideFlags: 0
  m_Script: {fileID: 11500000, guid: a83220306d249984592ca2ec1e4510b5, type: 3}
  m_Name: OldmanWow
  m_EditorClassIdentifier: 
  Name: 14
  AudioClips:
  - {fileID: 8300000, guid: 4b3625284c17f7040b9297bf7aabce5a, type: 3}
  Mixer: {fileID: 24300002, guid: bc81445833ca0234189ec59c2ed7b489, type: 2}
  MinMaxVolume: {x: 0.71, y: 0.71}
  MinMaxPitch: {x: 1, y: 1}
